<?xml version="1.0" encoding="UTF-8" standalone="no"?>
<svg
   xmlns:dc="http://purl.org/dc/elements/1.1/"
   xmlns:cc="http://creativecommons.org/ns#"
   xmlns:rdf="http://www.w3.org/1999/02/22-rdf-syntax-ns#"
   xmlns:svg="http://www.w3.org/2000/svg"
   xmlns="http://www.w3.org/2000/svg"
   xmlns:sodipodi="http://sodipodi.sourceforge.net/DTD/sodipodi-0.dtd"
   xmlns:inkscape="http://www.inkscape.org/namespaces/inkscape"
   width="100%"
   height="100%"
   viewBox="0 0 145 45"
   version="1.1"
   xml:space="preserve"
   style="fill-rule:evenodd;clip-rule:evenodd;stroke-linejoin:round;stroke-miterlimit:1.41421;"
   id="svg109"
   sodipodi:docname="logo.svg"
   inkscape:version="0.92.3 (2405546, 2018-03-11)"><metadata
   id="metadata115"><rdf:RDF><cc:Work
       rdf:about=""><dc:format>image/svg+xml</dc:format><dc:type
         rdf:resource="http://purl.org/dc/dcmitype/StillImage" /></cc:Work></rdf:RDF></metadata><defs
   id="defs113">
        
        
        
        
        
        
        
        
        
        
        
        
        
        
        
        
        
        
        
        
        
        
        
        
        
        
    </defs><sodipodi:namedview
   pagecolor="#ffffff"
   bordercolor="#666666"
   borderopacity="1"
   objecttolerance="10"
   gridtolerance="10"
   guidetolerance="10"
   inkscape:pageopacity="0"
   inkscape:pageshadow="2"
   inkscape:window-width="1140"
   inkscape:window-height="856"
   id="namedview111"
   showgrid="false"
   inkscape:zoom="2.9103448"
   inkscape:cx="85.124879"
   inkscape:cy="22.5"
   inkscape:window-x="0"
   inkscape:window-y="0"
   inkscape:window-maximized="0"
   inkscape:current-layer="svg109" />
    <g
   style="fill:#008000"
   id="g48"
   transform="matrix(0.79616,0,0,0.423713,-6.7702,-46.0964)">
            <path
   inkscape:connector-curvature="0"
   id="path46"
   style="fill:#008000"
   d="m 203.188,184.097 c -62.691,1.881 -129.792,0.271 -194.162,0.809 -0.426,0.072 -0.475,-0.157 -0.505,-0.405 -0.079,-0.47 0.114,-0.718 0.505,-0.808 64.553,0.267 130.458,-0.541 194.162,0.404" />
        </g><g
   id="g107"
   style="fill:#aa4400"><g
     transform="matrix(0.762734,0,0,0.669566,-8.5023,-91.2958)"
     id="g4"
     style="fill:#aa4400">
            <path
   d="m 30.378,142.017 h 4.067 v 31.559 H 14.624 v -8.092 h 5.082 v -5.258 c -2.319,-0.5 0.043,2.73 -1.526,2.83 h -3.556 v -8.096 c 2.772,0.086 6.11,-0.275 8.131,0.409 1.894,2.269 0.211,7.382 1.523,10.115 2.317,-1.936 0.38,-7.254 1.017,-10.524 h 4.067 c 0.333,3.375 -0.675,7.823 0.504,10.524 1.189,-7.016 0.174,-15.781 0.512,-23.467"
   style="fill:#aa4400"
   id="path2"
   inkscape:connector-curvature="0" />
        </g><g
     transform="matrix(0.762734,0,0,0.669566,-8.5023,-91.2958)"
     id="g8"
     style="fill:#aa4400">
            <path
   d="m 50.707,142.017 c -0.336,10.383 0.678,21.848 -0.51,31.559 h -2.539 c -2.335,-8.862 -0.363,-21.108 -1.018,-31.559 z"
   style="fill:#aa4400"
   id="path6"
   inkscape:connector-curvature="0" />
        </g><g
     transform="matrix(0.762734,0,0,0.669566,-8.5023,-91.2958)"
     id="g12"
     style="fill:#aa4400">
            <path
   d="m 183.366,165.484 c -0.309,-0.838 0.822,-2.811 -1.019,-2.428 0.31,0.834 -0.82,2.811 1.019,2.428 m -20.332,0 c 0.623,-0.656 1.358,-4.842 -0.509,-4.855 -0.475,0.767 -1.463,4.751 0.509,4.855 m 29.988,-23.467 h 4.067 v 31.559 h -33.543 v -2.426 c -1.082,1.434 -1.824,3.135 -5.599,2.426 0.175,-6.069 -0.727,-12.992 1.526,-17.399 2.636,-0.734 3.698,-2.722 7.628,-2.429 0.333,3.781 -0.677,8.631 0.509,11.736 2.316,-1.936 0.381,-7.254 1.015,-10.523 h 4.065 c 0.335,3.375 -0.674,7.822 0.509,10.523 2.315,-1.936 0.383,-7.254 1.019,-10.523 h 3.555 c 1.134,2.742 0.208,7.121 0.506,10.523 2.861,-1.502 0.131,-7.453 4.576,-7.689 4.027,0.435 2.19,5.544 4.067,7.689 1.18,-1.896 0.173,-5.527 0.509,-8.092 -0.178,-1.344 -2.931,-0.635 -4.576,-0.812 v -4.047 c 2.479,0.187 5.953,-0.422 7.626,0.404 2.283,2.768 -0.044,9.207 1.528,12.547 2.358,-6.217 0.343,-15.91 1.013,-23.467"
   style="fill:#aa4400"
   id="path10"
   inkscape:connector-curvature="0" />
        </g><g
     transform="matrix(0.762734,0,0,0.669566,-8.5023,-91.2958)"
     id="g16"
     style="fill:#aa4400">
            <path
   d="m 172.184,146.869 v 2.428 c -0.723,-0.033 -1.438,-0.067 -1.525,0.406 -0.789,1.437 1.725,0.244 1.525,1.213 v 1.617 h -3.05 c 0.778,-2.074 -0.804,-6.031 3.05,-5.664"
   style="fill:#aa4400"
   id="path14"
   inkscape:connector-curvature="0" />
        </g><g
     transform="matrix(0.762734,0,0,0.669566,-8.5023,-91.2958)"
     id="g20"
     style="fill:#aa4400">
            <path
   d="m 25.802,148.49 h 3.05 c -0.136,1.375 0.398,3.277 -0.507,4.043 h -2.543 z"
   style="fill:#aa4400"
   id="path18"
   inkscape:connector-curvature="0" />
        </g><g
     transform="matrix(0.762734,0,0,0.669566,-8.5023,-91.2958)"
     id="g24"
     style="fill:#aa4400">
            <path
   d="m 159.473,148.49 h 3.052 c -0.31,1.506 0.961,4.268 -1.523,4.043 -2.485,0.225 -1.217,-2.537 -1.529,-4.043"
   style="fill:#aa4400"
   id="path22"
   inkscape:connector-curvature="0" />
        </g><g
     transform="matrix(0.762734,0,0,0.669566,-8.5023,-91.2958)"
     id="g28"
     style="fill:#aa4400">
            <rect
   x="163.034"
   y="148.49001"
   width="2.5409999"
   height="4.0430002"
   style="fill:#aa4400"
   id="rect26" />
        </g><g
     transform="matrix(0.762734,0,0,0.669566,-8.5023,-91.2958)"
     id="g32"
     style="fill:#aa4400">
            <path
   d="m 35.968,154.96 h 4.069 c 0.334,3.375 -0.675,7.822 0.507,10.523 2.315,-1.935 0.376,-7.253 1.016,-10.523 h 3.557 c 1.166,5.412 0.181,12.533 0.51,18.615 h -5.59 c -0.342,1.754 -0.023,2.983 2.538,2.428 -0.488,1.232 1.089,4.105 -1.015,4.045 -2.588,0.578 -1.169,-2.037 -1.523,-3.236 -1.056,2.127 -0.931,5.193 -5.592,4.451 2.795,-6.944 1.044,-17.51 1.523,-26.303"
   style="fill:#aa4400"
   id="path30"
   inkscape:connector-curvature="0" />
        </g><g
     transform="matrix(0.762734,0,0,0.669566,-8.5023,-91.2958)"
     id="g36"
     style="fill:#aa4400">
            <rect
   x="43.084"
   y="176.00301"
   width="2.543"
   height="4.0450001"
   style="fill:#aa4400"
   id="rect34" />
        </g><g
     transform="matrix(0.762734,0,0,0.669566,-8.5023,-91.2958)"
     id="g40"
     style="fill:#aa4400">
            <rect
   x="173.19901"
   y="176.00301"
   width="2.539"
   height="4.0450001"
   style="fill:#aa4400"
   id="rect38" />
        </g><g
     transform="matrix(0.762734,0,0,0.669566,-8.5023,-91.2958)"
     id="g44"
     style="fill:#aa4400">
            <rect
   x="176.248"
   y="176.00301"
   width="2.5420001"
   height="4.0450001"
   style="fill:#aa4400"
   id="rect42" />
        </g><g
     transform="matrix(0.762734,0,0,0.669566,-8.5023,-91.2958)"
     id="g52"
     style="fill:#aa4400">
            <path
   d="m 122.376,140.8 c -1.644,6.395 -1.732,18.295 0,24.684 3.374,-1.223 0.634,-7.315 1.52,-10.524 h 4.071 c 0.331,3.375 -0.678,7.822 0.507,10.524 2.311,-1.936 0.377,-7.254 1.012,-10.524 h 4.069 v 10.524 c 2.318,-1.936 0.378,-7.254 1.014,-10.524 h 4.069 c 1.165,5.412 0.183,12.533 0.508,18.615 h -25.923 v -8.091 h 4.069 c -0.331,-7.561 0.664,-16.176 -0.511,-23.067 -1.848,5.811 1.174,15.498 -1.524,20.639 -3.543,-0.299 -2.034,-6.299 -2.034,-9.309 v -10.924 c 0.121,-3.055 2.418,-2.924 4.357,-2.538 1.038,0.207 4.796,0.515 4.796,0.515 z"
   style="fill:#aa4400"
   id="path50"
   inkscape:connector-curvature="0" />
        </g><g
     transform="matrix(0.762734,0,0,0.669566,-8.5023,-91.2958)"
     id="g56"
     style="fill:#aa4400">
            <path
   d="m 140.162,141.609 h 2.537 c 0.686,4.484 0.803,11.313 0.511,16.994 -0.073,1.424 1.183,4.367 -1.524,4.453 -2.731,-1.158 -1.524,-6.381 -1.524,-9.711 v -10.521 z"
   style="fill:#aa4400"
   id="path54"
   inkscape:connector-curvature="0" />
        </g><g
     transform="matrix(0.762734,0,0,0.669566,-8.5023,-91.2958)"
     id="g60"
     style="fill:#aa4400">
            <path
   d="m 148.297,141.609 v 31.967 h -8.136 v -8.092 h 4.069 v -23.875 z"
   style="fill:#aa4400"
   id="path58"
   inkscape:connector-curvature="0" />
        </g><g
     transform="matrix(0.762734,0,0,0.669566,-8.5023,-91.2958)"
     id="g64"
     style="fill:#aa4400">
            <path
   d="m 153.377,141.609 c 0.839,9.719 0.851,22.25 0,31.967 h -3.051 c -2.342,-8.549 -0.357,-20.639 -1.013,-30.752 -0.341,-1.754 2.358,-1.092 4.064,-1.215"
   style="fill:#aa4400"
   id="path62"
   inkscape:connector-curvature="0" />
        </g><g
     transform="matrix(0.762734,0,0,0.669566,-8.5023,-91.2958)"
     id="g68"
     style="fill:#aa4400">
            <path
   d="m 75.613,148.49 h 3.051 v 4.043 h -2.541 c -0.905,-0.766 -0.374,-2.668 -0.51,-4.043"
   style="fill:#aa4400"
   id="path66"
   inkscape:connector-curvature="0" />
        </g><g
     transform="matrix(0.762734,0,0,0.669566,-8.5023,-91.2958)"
     id="g72"
     style="fill:#aa4400">
            <rect
   x="87.811996"
   y="148.49001"
   width="3.049"
   height="4.0430002"
   style="fill:#aa4400"
   id="rect70" />
        </g><g
     transform="matrix(0.762734,0,0,0.669566,-8.5023,-91.2958)"
     id="g76"
     style="fill:#aa4400">
            <rect
   x="91.366997"
   y="148.49001"
   width="2.543"
   height="4.0430002"
   style="fill:#aa4400"
   id="rect74" />
        </g><g
     transform="matrix(0.762734,0,0,0.669566,-8.5023,-91.2958)"
     id="g80"
     style="fill:#aa4400">
            <path
   d="m 107.634,165.484 c -0.326,-1.498 0.655,-4.033 -0.507,-4.855 -0.234,0.96 -1.628,4.625 0.507,4.855 m -16.268,0 c -0.322,-1.498 0.661,-4.033 -0.505,-4.855 -0.234,0.96 -1.626,4.625 0.505,4.855 m 4.577,-11.736 v 11.736 c 2.319,-1.936 0.383,-7.254 1.016,-10.523 h 4.067 c 0.337,3.375 -0.673,7.822 0.51,10.523 2.155,-2.465 0.37,-8.066 3.05,-10.115 1.886,-0.658 4.998,-0.34 7.619,-0.408 v 18.615 H 92.893 c -1.32,0.242 -1.826,-0.164 -1.527,-1.213 -0.512,1.344 -2.715,1.344 -5.078,1.213 0.456,-8.811 -2.873,-20.629 9.655,-19.828"
   style="fill:#aa4400"
   id="path78"
   inkscape:connector-curvature="0" />
        </g><g
     transform="matrix(0.762734,0,0,0.669566,-8.5023,-91.2958)"
     id="g84"
     style="fill:#aa4400">
            <path
   d="m 77.648,165.484 c -0.328,-1.498 0.658,-4.033 -0.51,-4.855 0.049,1.185 -1.8,4.488 0.51,4.855 M 60.365,154.961 c -0.64,3.81 -1.928,9.252 -0.508,13.353 4.842,-1.268 -0.089,-10.32 3.051,-12.945 1.878,-0.653 6.759,-0.653 8.638,0 0.633,3.138 -1.295,8.312 1.017,10.115 1.012,-1.588 -1.149,-8.143 2.035,-10.115 1.884,-0.658 4.995,-0.34 7.622,-0.408 v 18.615 H 66.973 v -12.947 c -2.246,3.742 -0.432,10.716 -1.016,15.779 h -10.67 c 0.767,-4.926 -4.84,-22.432 5.078,-21.447"
   style="fill:#aa4400"
   id="path82"
   inkscape:connector-curvature="0" />
        </g><g
     transform="matrix(0.762734,0,0,0.669566,-8.5023,-91.2958)"
     id="g88"
     style="fill:#aa4400">
            <rect
   x="95.943001"
   y="176.00301"
   width="6.098"
   height="4.0450001"
   style="fill:#aa4400"
   id="rect86" />
        </g><g
     transform="matrix(0.762734,0,0,0.669566,-8.5023,-91.2958)"
     id="g92"
     style="fill:#aa4400">
            <path
   d="m 141.178,176.003 h 2.031 c 0.405,1.668 -0.219,2.518 -1.523,2.832 1.304,0.314 1.928,1.162 1.523,2.834 h -3.048 c 0.078,-2.1 0.371,-4.021 1.017,-5.666"
   style="fill:#aa4400"
   id="path90"
   inkscape:connector-curvature="0" />
        </g><g
     transform="matrix(0.762734,0,0,0.669566,-8.5023,-91.2958)"
     id="g96"
     style="fill:#aa4400">
            <path
   d="m 57.317,178.835 h 3.047 v 4.049 h -2.537 c -0.904,-0.768 -0.374,-2.676 -0.51,-4.049"
   style="fill:#aa4400"
   id="path94"
   inkscape:connector-curvature="0" />
        </g><g
     transform="matrix(0.762734,0,0,0.669566,-8.5023,-91.2958)"
     id="g100"
     style="fill:#aa4400">
            <rect
   x="60.875999"
   y="178.83501"
   width="2.5420001"
   height="4.0489998"
   style="fill:#aa4400"
   id="rect98" />
        </g></g><g
   style="fill:#008000"
   id="g106"
   transform="matrix(0.543185,0,0,0.624241,-2.8285,-82.0772)">
            <text
   id="text104"
   style="font-weight:700;font-size:19.10199928px;font-family:Arial-BoldMT, Arial, sans-serif;fill:#008000"
   y="199.342"
   x="8.5039997">I<tspan
   style="fill:#008000"
   id="tspan102"
   y="199.342 199.342 199.342 199.342 199.342 199.342 199.342 199.342 199.342 199.342 199.342 199.342 199.342 199.342 199.342 199.342 199.342 199.342 199.342 199.342 199.342 199.342 199.342 199.342 199.342 199.342 199.342 199.342"
   x="13.63 24.072001 29.198999 39.640999 56.444 61.570999 72.013 77.139 88.625999 100.113 111.6 123.087 134.57401 145.017 151.19701 156.323 167.81 179.297 184.423 195.91 202.09 207.216 212.343 219.595 230.03799 235.164 245.606 257.09299">slamic Foundation of Ireland</tspan></text>


        </g>
</svg>