{
  "title": "Islamic Foundation Ireland",
  "description": "Prayer Timetable",
  "city": "dublin",
  "lang": "en",
  "online": true,
  "logo": "logo-ifi.svg",
  "log": false,
  "updateInterval": 60,
  "template": "Dawn",
  "url": {
      "settings": "https://islamicfoundation.ie/api/settings/",
      "timetable": "https://islamicfoundation.ie/api/timetable/"
  },
  "announcement": "Welcome!",
  "text": {
      "en": "Assalamu Alaikum",
      "ar": "السَّلَامُ عَلَيْكُمْ‎"
  },
  "hijrioffset": "0",
  "join": "0",
  "jummuahtime": [13,5],
  "taraweehtime": [23,15],
  "jamaahShow": true,
  "jamaahmethods": ["afterthis","","fixed","afterthis","afterthis","fixed"],
  "jamaahoffsets": [[0,15],[],[13,45],[0,15],[0,15],[23,30]],
  "labels": {
      "jummuah": "Jummuah",
      "taraweeh": "Taraweeh",
      "prayer": "Prayer",
      "adhan": "Adhan",
      "iqamah": "Iqamah",
      "prepare": "Prepare for",
      "ramadancountdown": "until Ramadan",
      "names": ["Fajr","Shurooq","Dhuhr","Asr","Maghrib","Isha"]
  },
  "switch": false,
  "updated": 1514764800
}