{
    "main": {
        "text": {
            "color": "rgba(30,30,30,1)",
            "color2": "rgba(30,30,30,1)",
            "size": "48px",
            "size2": "48px",
            "weight": 400,
            "weight2": 400,
            "family": "Cairo"
        },
        "background": {
            "color": "rgba(250,215,210,1)",
            "color2": "rgba(120,220,230,1)",
            "type": "radial"           
        },
        "border": {
            "width": "0",
            "style": "solid",
            "color": "rgba(100,175,100,1)"
        }
    },
    "header": {
        "text": {
            "color": "rgba(30,30,30,1)",
            "color2": "rgba(50,50,50,.35)",
            "size": "32px",
            "size2": "32px",
            "weight": 400,
            "weight2": 400,
            "family": "Cairo"
        },
        "background": {
            "color": "rgba(30,30,30,.25)",
            "color2": "rgba(30,30,30,.05)",
            "type": "linear"   
        },
        "border": {
            "width": "0 0 1px 0",
            "style": "solid",
            "color": "rgba(30,30,30,.5)"
        }
    },
    "clock": {
        "text": {
            "color": "rgba(30,30,30,1)",
            "color2": "rgba(30,30,30,1)",
            "size": "160px",
            "size2": "40px",
            "weight": 300,
            "weight2": 400,
            "family": "Cairo"
        },
        "background": {
            "color": "rgba(30,30,30,0)",
            "color2": "rgba(30,30,30,.0)",
            "type": "linear"   
        },
        "border": {
            "width": "0 0 1px 0",
            "style": "solid",
            "color": "rgba(30,30,30,.5)"
        }
    },
    "prayers": {
        "text": {
            "color": "rgba(30,30,30,1)",
            "color2": "rgba(30,30,30,1)",
            "size": "52px",
            "size2": "52px",
            "weight": 400,
            "weight2": 400,
            "family": "Cairo"
        },
        "background": {
            "color": "rgba(30,30,30,0)",
            "color2": "rgba(30,30,30,.0)",
            "type": "linear"   
        },
        "border": {
            "width": "1px 0 10px 0",
            "style": "solid",
            "color": "rgba(30,30,30,.1)"
        }
    },
    "prayer": {
        "text": {
            "color": "rgba(30,30,30,1)",
            "color2": "rgba(30,30,30,1)",
            "size": "52px",
            "size2": "52px",
            "weight": 400,
            "weight2": 700,
            "family": "Cairo"
        },
        "background": {
            "color": "rgba(30,30,30,0)",
            "color2": "rgba(30,30,30,.15)",
            "type": "linear"   
        },
        "border": {
            "width": "0 0 1px 0",
            "style": "solid",
            "color": "rgba(30,30,30,.5)"
        }
    },
    "countdown": {
        "text": {
            "color": "rgba(30,30,30,1)",
            "color2": "rgba(30,30,30,1)",
            "size": "52px",
            "size2": "52px",
            "weight": 400,
            "weight2": 400,
            "family": "Cairo"
        },
        "background": {
            "color": "rgba(30,30,30,0)",
            "color2": "rgba(30,30,30,.0)",
            "type": "linear"   
        },
        "border": {
            "width": "0 0 1px 0",
            "style": "solid",
            "color": "rgba(30,30,30,.25)"
        }
    },
    "message": {
        "text": {
            "color": "rgba(30,30,30,1)",
            "color2": "rgba(30,30,30,1)",
            "size": "36px",
            "size2": "32px",
            "weight": 400,
            "weight2": 400,
            "family": "Cairo"
        },
        "background": {
            "color": "rgba(30,30,30,0)",
            "color2": "rgba(30,30,30,.0)",
            "type": "linear"   
        },
        "border": {
            "width": "0 0 1px 0",
            "style": "solid",
            "color": "rgba(30,30,30,.5)"
        }
    },
    "footer": {
        "text": {
            "color": "rgba(30,30,30,1)",
            "color2": "rgba(30,30,30,.25)",
            "size": "32px",
            "size2": "32px",
            "weight": 400,
            "weight2": 400,
            "family": "Cairo"
        },
        "background": {
            "color": "rgba(30,30,30,.05)",
            "color2": "rgba(30,30,30,.15)",
            "type": "linear"   
        },
        "border": {
            "width": "1px 0 0 0",
            "style": "solid",
            "color": "rgba(30,30,30,.5)"
        }
    },
    "overlay": {
        "text": {
            "color": "rgba(250,215,210,.5)",
            "color2": "rgba(250,215,210,1)",
            "size": "24px",
            "size2": "24px",
            "weight": "inherit",
            "weight2": "inherit",
            "family": "Cairo"
        },
        "background": {
            "color": "rgba(30,30,30,.95)",
            "color2": "rgba(30,30,30,.25)",
            "type": "linear"   
        },
        "border": {
            "width": "1px 0 0 0",
            "style": "solid",
            "color": "rgba(30,30,30,.75)"
        }
    }
}